{
    "logs": [{
        "HB": "270",
        "team": "2",
        "type": "0",
        "value": "0"
    }, {
        "HB": "744",
        "team": "6",
        "type": "0",
        "value": "0"
    }, {
        "HB": "899",
        "team": "2",
        "type": "0",
        "value": "0"
    }, {
        "HB": "1695",
        "team": "6",
        "type": "0",
        "value": "0"
    }, {
        "HB": "1897",
        "team": "2",
        "type": "0",
        "value": "0"
    }, {
        "HB": "2418",
        "team": "6",
        "type": "0",
        "value": "0"
    }, {
        "HB": "2716",
        "team": "2",
        "type": "0",
        "value": "0"
    }, {
        "HB": "3480",
        "team": "2",
        "type": "1",
        "value": "2"
    }, {
        "HB": "3966",
        "team": "6",
        "type": "0",
        "value": "0"
    }, {
        "HB": "4505",
        "team": "2",
        "type": "0",
        "value": "0"
    }, {
        "HB": "4740",
        "team": "3",
        "type": "0",
        "value": "0"
    }, {
        "HB": "5579",
        "team": "3",
        "type": "1",
        "value": "1"
    }, {
        "HB": "5741",
        "team": "2",
        "type": "0",
        "value": "0"
    }, {
        "HB": "6656",
        "team": "2",
        "type": "1",
        "value": "1"
    }, {
        "HB": "7152",
        "team": "6",
        "type": "0",
        "value": "0"
    }, {
        "HB": "7623",
        "team": "3",
        "type": "0",
        "value": "0"
    }, {
        "HB": "8047",
        "team": "6",
        "type": "0",
        "value": "0"
    }, {
        "HB": "8168",
        "team": "3",
        "type": "0",
        "value": "0"
    }, {
        "HB": "8870",
        "team": "6",
        "type": "0",
        "value": "0"
    }, {
        "HB": "8958",
        "team": "2",
        "type": "0",
        "value": "0"
    }, {
        "HB": "9133",
        "team": "3",
        "type": "0",
        "value": "0"
    }, {
        "HB": "9530",
        "team": "6",
        "type": "0",
        "value": "0"
    }, {
        "HB": "9908",
        "team": "2",
        "type": "0",
        "value": "0"
    }, {
        "HB": "10209",
        "team": "6",
        "type": "0",
        "value": "0"
    }, {
        "HB": "10766",
        "team": "2",
        "type": "0",
        "value": "0"
    }, {
        "HB": "11533",
        "team": "8",
        "type": "0",
        "value": "0"
    }, {
        "HB": "11693",
        "team": "2",
        "type": "0",
        "value": "0"
    }, {
        "HB": "12399",
        "team": "3",
        "type": "0",
        "value": "0"
    }, {
        "HB": "12573",
        "team": "2",
        "type": "0",
        "value": "0"
    }, {
        "HB": "12733",
        "team": "3",
        "type": "0",
        "value": "0"
    }, {
        "HB": "14020",
        "team": "3",
        "type": "1",
        "value": "4"
    }, {
        "HB": "16565",
        "team": "2",
        "type": "0",
        "value": "0"
    }, {
        "HB": "16830",
        "team": "6",
        "type": "0",
        "value": "0"
    }, {
        "HB": "17337",
        "team": "2",
        "type": "0",
        "value": "0"
    }, {
        "HB": "18022",
        "team": "6",
        "type": "0",
        "value": "0"
    }, {
        "HB": "18751",
        "team": "6",
        "type": "1",
        "value": "3"
    }, {
        "HB": "22404",
        "team": "7",
        "type": "0",
        "value": "0"
    }, {
        "HB": "22682",
        "team": "3",
        "type": "0",
        "value": "0"
    }, {
        "HB": "22823",
        "team": "2",
        "type": "0",
        "value": "0"
    }, {
        "HB": "23050",
        "team": "3",
        "type": "0",
        "value": "0"
    }, {
        "HB": "23547",
        "team": "2",
        "type": "0",
        "value": "0"
    }, {
        "HB": "24274",
        "team": "2",
        "type": "1",
        "value": "4"
    }, {
        "HB": "24828",
        "team": "6",
        "type": "0",
        "value": "0"
    }, {
        "HB": "25922",
        "team": "3",
        "type": "0",
        "value": "0"
    }, {
        "HB": "27816",
        "team": "2",
        "type": "0",
        "value": "0"
    }, {
        "HB": "28545",
        "team": "2",
        "type": "1",
        "value": "2"
    }]
}