{
    "logs": [{
        "HB": "255",
        "team": "2",
        "type": "0",
        "value": "0"
    }, {
        "HB": "572",
        "team": "7",
        "type": "4",
        "value": "0"
    }, {
        "HB": "902",
        "team": "6",
        "type": "0",
        "value": "0"
    }, {
        "HB": "1712",
        "team": "7",
        "type": "0",
        "value": "0"
    }, {
        "HB": "2354",
        "team": "6",
        "type": "0",
        "value": "0"
    }, {
        "HB": "2563",
        "team": "7",
        "type": "0",
        "value": "0"
    }, {
        "HB": "2896",
        "team": "7",
        "type": "2",
        "value": "1"
    }, {
        "HB": "2971",
        "team": "7",
        "type": "2",
        "value": "1"
    }, {
        "HB": "3007",
        "team": "7",
        "type": "2",
        "value": "1"
    }, {
        "HB": "3326",
        "team": "7",
        "type": "1",
        "value": "5"
    }, {
        "HB": "6416",
        "team": "7",
        "type": "1",
        "value": "5"
    }, {
        "HB": "8839",
        "team": "7",
        "type": "1",
        "value": "4"
    }, {
        "HB": "11311",
        "team": "7",
        "type": "1",
        "value": "4"
    }, {
        "HB": "14302",
        "team": "7",
        "type": "1",
        "value": "5"
    }, {
        "HB": "16615",
        "team": "7",
        "type": "1",
        "value": "4"
    }, {
        "HB": "21154",
        "team": "2",
        "type": "0",
        "value": "0"
    }, {
        "HB": "22395",
        "team": "7",
        "type": "0",
        "value": "0"
    }, {
        "HB": "23145",
        "team": "7",
        "type": "1",
        "value": "11"
    }, {
        "HB": "24324",
        "team": "6",
        "type": "0",
        "value": "0"
    }, {
        "HB": "25060",
        "team": "7",
        "type": "0",
        "value": "0"
    }, {
        "HB": "26373",
        "team": "7",
        "type": "1",
        "value": "5"
    }, {
        "HB": "28539",
        "team": "7",
        "type": "1",
        "value": "4"
    }]
}