{
    "logs": [{
        "HB": "501",
        "team": "2",
        "type": "0",
        "value": "0"
    }, {
        "HB": "567",
        "team": "6",
        "type": "0",
        "value": "0"
    }, {
        "HB": "1499",
        "team": "7",
        "type": "0",
        "value": "0"
    }, {
        "HB": "1942",
        "team": "6",
        "type": "0",
        "value": "0"
    }, {
        "HB": "2672",
        "team": "6",
        "type": "1",
        "value": "1"
    }, {
        "HB": "3201",
        "team": "7",
        "type": "0",
        "value": "0"
    }, {
        "HB": "3242",
        "team": "7",
        "type": "2",
        "value": "1"
    }, {
        "HB": "4126",
        "team": "7",
        "type": "1",
        "value": "3"
    }, {
        "HB": "7241",
        "team": "7",
        "type": "1",
        "value": "4"
    }, {
        "HB": "8606",
        "team": "7",
        "type": "4",
        "value": "0"
    }, {
        "HB": "8650",
        "team": "7",
        "type": "2",
        "value": "1"
    }, {
        "HB": "8706",
        "team": "7",
        "type": "2",
        "value": "1"
    }, {
        "HB": "9477",
        "team": "7",
        "type": "1",
        "value": "7"
    }, {
        "HB": "11646",
        "team": "7",
        "type": "1",
        "value": "6"
    }, {
        "HB": "13841",
        "team": "7",
        "type": "1",
        "value": "6"
    }, {
        "HB": "16582",
        "team": "7",
        "type": "1",
        "value": "8"
    }, {
        "HB": "21853",
        "team": "7",
        "type": "1",
        "value": "16"
    }, {
        "HB": "25594",
        "team": "2",
        "type": "0",
        "value": "0"
    }, {
        "HB": "26430",
        "team": "7",
        "type": "0",
        "value": "0"
    }, {
        "HB": "27165",
        "team": "7",
        "type": "1",
        "value": "15"
    }]
}